Division,WeightClassKg,Place,Name,Team,BodyweightKg,Best3SquatKg,Best3BenchKg,Best3DeadliftKg,TotalKg,Equipment,Event,Sex
Boys,51.71,1,Oscar Sanchez,Seguin,49.99,115.67,74.84,140.61,331.12,Single-ply,SBD,M
Boys,51.71,2,Jarred Herrera,San Antonio Southside,50.62,115.67,65.77,138.35,319.78,Single-ply,SBD,M
Boys,55.79,1,Juan Chapa,San Antonio Southside,54.07,161.03,95.25,151.95,408.23,Single-ply,SBD,M
Boys,55.79,2,Philip Alvarado,Blanco,55.79,149.69,92.99,161.03,403.7,Single-ply,SBD,M
Boys,55.79,3,Kade Lopez,San Antonio Southside,54.61,124.74,83.91,165.56,374.21,Single-ply,SBD,M
Boys,55.79,4,Dylan Tesch,Blanco,52.07,102.06,54.43,124.74,281.23,Single-ply,SBD,M
Boys,59.87,1,Landon Camacho,Pleasanton,59.06,154.22,95.25,142.88,392.36,Single-ply,SBD,M
Boys,59.87,2,Eddie Torres #1,Blanco,56.15,127.01,88.45,151.95,367.41,Single-ply,SBD,M
Boys,59.87,3,Robert Perez,Uvalde,59.87,113.4,81.65,163.29,358.34,Single-ply,SBD,M
Boys,59.87,4,Leonard Barrientes,San Antonio Kennedy,59.6,129.27,72.57,136.08,337.93,Single-ply,SBD,M
Boys,59.87,5,Daniel Cardenas,Uvalde,59.42,92.99,72.57,117.93,283.5,Single-ply,SBD,M
Boys,67.13,1,Jose Flores #3,San Antonio Kennedy,62.69,163.29,95.25,174.63,433.18,Single-ply,SBD,M
Boys,67.13,2,Juan Medina,Floresville,64.41,147.42,83.91,170.1,401.43,Single-ply,SBD,M
Boys,74.84,3,Chase Horton,Blanco,67.31,149.69,79.38,154.22,383.29,Single-ply,SBD,M
Boys,67.13,4,Noah Rangel,San Antonio Southside,66.86,147.42,68.04,156.49,371.95,Single-ply,SBD,M
Boys,67.13,5,Preston Taggs,Floresville,64.86,145.15,74.84,133.81,353.8,Single-ply,SBD,M
Boys,67.13,6,Johnathon Ewards,Pleasanton,66.04,124.74,63.5,142.88,331.12,Single-ply,SBD,M
Boys,67.13,7,Eduardo Medrano,Uvalde,61.05,122.47,68.04,136.08,326.59,Single-ply,SBD,M
Boys,74.84,1,Alex Diaz #3,San Antonio Southside,74.84,183.7,120.2,190.51,494.42,Single-ply,SBD,M
Boys,74.84,2,Alex Juarez,Blanco,73.21,174.63,117.93,176.9,469.47,Single-ply,SBD,M
Boys,74.84,3,Jacob Hernandez,Comfort,69.04,142.88,86.18,156.49,385.55,Single-ply,SBD,M
Boys,74.84,4,Stefen Villanueva,Floresville,71.85,138.35,83.91,133.81,356.07,Single-ply,SBD,M
Boys,74.84,5,Thomas Herring,Floresville,69.85,124.74,65.77,161.03,351.53,Single-ply,SBD,M
Boys,74.84,6,Andy Joslin,Floresville,69.4,142.88,70.31,133.81,347,Single-ply,SBD,M
Boys,74.84,7,Baxter Brewer,Uvalde,74.57,108.86,65.77,136.08,310.71,Single-ply,SBD,M
Boys,82.1,1,Austin Gonzales,San Antonio Southside,78.38,201.85,127.01,190.51,519.36,Single-ply,SBD,M
Boys,82.1,2,Sergio Zuniga,San Antonio Southside,81.01,195.04,120.2,204.12,519.36,Single-ply,SBD,M
Boys,82.1,3,Chase Lindner,Comfort,75.84,161.03,117.93,188.24,467.2,Single-ply,SBD,M
Boys,82.1,4,Christian Hinkley,Comfort,79.2,158.76,97.52,181.44,437.72,Single-ply,SBD,M
Boys,82.1,5,Justin Faulkner,Comfort,76.2,158.76,97.52,170.1,426.38,Single-ply,SBD,M
Boys,82.1,6,Rigo Hernandez,Uvalde,80.01,158.76,88.45,167.83,415.04,Single-ply,SBD,M
Boys,82.1,7,Jake Breeding,Blanco,77.47,149.69,95.25,167.83,412.77,Single-ply,SBD,M
Boys,82.1,8,Alex Albrado,Pleasanton,77.2,151.95,81.65,151.95,385.55,Single-ply,SBD,M
Boys,82.1,9,Gus Martinez,Blanco,79.92,131.54,68.04,145.15,344.73,Single-ply,SBD,M
Boys,99.79,1,Jacob Almaguer,Seguin,90.04,231.33,140.61,244.94,616.89,Single-ply,SBD,M
Boys,89.81,2,Omar Guadarrama,San Antonio Southside,85.18,206.38,151.95,190.51,548.85,Single-ply,SBD,M
Boys,89.81,3,Daniel Ramirez #6,San Antonio Kennedy,83.73,210.92,124.74,188.24,523.9,Single-ply,SBD,M
Boys,89.81,4,Jessie Ruiz,Blanco,87.45,204.12,122.47,185.97,512.56,Single-ply,SBD,M
Boys,89.81,5,Garrett Pressler,Comfort,86.18,183.7,97.52,195.04,476.27,Single-ply,SBD,M
Boys,89.81,6,Steven Cardenas,Seguin,83.46,170.1,102.06,176.9,449.06,Single-ply,SBD,M
Boys,89.81,7,Rowdy Souter,Comfort,86.36,165.56,102.06,167.83,435.45,Single-ply,SBD,M
Boys,89.81,8,Andrew Garcia,Pleasanton,89.54,158.76,90.72,165.56,415.04,Single-ply,SBD,M
Boys,89.81,9,Derek Garcia,Uvalde,84.01,136.08,97.52,149.69,383.29,Single-ply,SBD,M
Boys,99.79,1,Mason LeBlanc,Blanco,94.17,235.87,136.08,208.65,580.6,Single-ply,SBD,M
Boys,99.79,2,David Moyet,San Antonio Southside,97.25,219.99,154.22,204.12,578.33,Single-ply,SBD,M
Boys,99.79,3,Chris Barnett,Blanco,93.8,197.31,122.47,199.58,519.36,Single-ply,SBD,M
Boys,99.79,4,Rudy Pena,San Antonio Kennedy,92.26,185.97,102.06,226.8,514.83,Single-ply,SBD,M
Boys,99.79,5,Trey Hodge,Blanco,92.08,151.95,92.99,151.95,396.89,Single-ply,SBD,M
Boys,99.79,DQ,Robert Hinojosa,San Antonio Kennedy,97.07,167.83,70.31,,,Single-ply,SBD,M
Boys,109.77,1,Jack Richison,Comfort,107.32,204.12,151.95,231.33,587.4,Single-ply,SBD,M
Boys,124.74,2,Marc Hubbard,Comfort,109.86,204.12,127.01,240.4,571.53,Single-ply,SBD,M
Boys,109.77,3,Gilbert Garza,San Antonio Southside,109.68,238.14,142.88,188.24,569.26,Single-ply,SBD,M
Boys,109.77,4,Jeremy Ybarra,San Antonio Kennedy,108.32,206.38,117.93,240.4,564.72,Single-ply,SBD,M
Boys,109.77,DQ,Khalid Schuler,Seguin,107.41,,,,,Single-ply,SBD,M
Boys,124.74,1,R'vonte Chizer,Seguin,122.56,249.48,145.15,204.12,598.74,Single-ply,SBD,M
Boys,124.74,2,Hunter Goodman,Blanco,121.56,244.94,111.13,226.8,582.87,Single-ply,SBD,M
Boys,124.74,3,Hector Valadez,San Antonio Southside,111.4,226.8,154.22,197.31,578.33,Single-ply,SBD,M
Boys,124.74,4,Bj Carranza,Uvalde,114.85,231.33,102.06,185.97,519.36,Single-ply,SBD,M
Boys,124.74,5,Noah Ramirez,Comfort,123.92,210.92,102.06,201.85,514.83,Single-ply,SBD,M
Boys,124.74,6,Damian Cantu,San Antonio Kennedy,113.49,149.69,117.93,179.17,446.79,Single-ply,SBD,M
Boys,124.74,7,Johnathon Ricks,Pleasanton,117.39,142.88,88.45,147.42,378.75,Single-ply,SBD,M
Boys,124.74,8,Eric Perez,Pleasanton,113.67,138.35,92.99,131.54,362.87,Single-ply,SBD,M
Boys,124.74+,1,Carlos Trevino,Seguin,128.19,240.4,158.76,242.67,641.83,Single-ply,SBD,M
Boys,124.74+,2,Drew Kirkpatrick,Uvalde,135.62,263.08,136.08,226.8,625.96,Single-ply,SBD,M
Boys,124.74+,3,Tyler Moore,Comfort,129.5,172.37,97.52,170.1,439.98,Single-ply,SBD,M
Boys,124.74+,DQ,Zach Moore #3,Comfort,137.53,190.51,92.99,,,Single-ply,SBD,M
