Place,Name,Sex,BirthDate,Age,Country,State,Equipment,Division,BodyweightKg,WeightClassKg,Squat1Kg,Squat2Kg,Squat3Kg,Best3SquatKg,Bench1Kg,Bench2Kg,Bench3Kg,Best3BenchKg,Deadlift1Kg,Deadlift2Kg,Deadlift3Kg,Best3DeadliftKg,TotalKg,Team,Event
1,Melica Fabroa,F,2000-10-06,21,Australia,NSW,Raw,Open,53.95,56,95,105,112.5,112.5,45,50,55,55,115,125,140,140,307.5,CCSC,SBD
1,Casey Haydon,F,2003-02-06,19,Australia,,Raw,Juniors 18-19,83.65,90,110,115,125,125,67.5,72.5,-77.5,72.5,150,160,170,170,367.5,,SBD
1,Saarah Abdel-Qader,F,1999-03-03,23,Australia,,Raw,Juniors 20-23,62.55,67.5,85,95,105,105,60,70,72.5,72.5,125,140,160,160,337.5,,SBD
1,Kaylene Jones,F,1974-06-13,47,Australia,,Raw,Masters 45-49,74.1,75,85,90,97.5,97.5,52.5,57.5,60,60,105,112.5,120,120,277.5,CCSC,SBD
1,Izabella Palmero,F,1999-07-22,22,Australia,,Raw,Open,59.5,60,105,115,-120,115,57.5,-60,-65,57.5,127.5,135,142.5,142.5,315,,SBD
1,Saarah Abdel-Qader,F,1999-03-03,23,Australia,,Raw,Open,62.55,67.5,85,95,105,105,60,70,72.5,72.5,125,140,160,160,337.5,,SBD
1,Kaylene Jones,F,1974-06-13,47,Australia,,Raw,Open,74.1,75,85,90,97.5,97.5,52.5,57.5,60,60,105,112.5,120,120,277.5,CCSC,SBD
1,Casey Haydon,F,2003-02-06,19,Australia,,Raw,Open,83.65,90,110,115,125,125,67.5,72.5,-77.5,72.5,150,160,170,170,367.5,,SBD
2,Maggie Lilburne,F,1999-01-11,23,Australia,,Raw,Open,85.2,90,130,135,-142.5,135,65,67.5,-72.5,67.5,140,150,160,160,362.5,,SBD
3,Jane Millers,F,1974-04-11,48,Australia,,Raw,Open,89.95,90,115,122.5,130,130,55,60,62.5,62.5,130,137.5,-140,137.5,330,Lift3,SBD
1,Crystal Hadley Mackay,F,1986-12-14,35,Australia,,Wraps,Open,47.45,48,75,85,-92.5,85,40,45,47.5,47.5,120,125,127.5,127.5,260,Rivercity Barbell,SBD
1,Justine Baxter,F,1987-06-16,34,Australia,NSW,Wraps,Open,72.7,75,170,-177.5,177.5,177.5,70,-75,-75,70,170,-177.5,-177.5,170,417.5,,SBD
2,Laura McLennan,F,1998-05-22,23,Australia,,Wraps,Open,72.7,75,115,120,127.5,127.5,62.5,67.5,72.5,72.5,120,130,140,140,340,Rivercity Barbell,SBD
1,Kim Stevenson Farmakis,F,1982-06-07,39,Australia,,Raw,Open,65.85,67.5,,,,,100,105,-110,105,120,127.5,132.5,132.5,237.5,Realfitt,BD
1,Yerong Yang,M,2001-11-03,20,Australia,,Raw,Juniors 20-23,82.1,82.5,200,210,220,220,125,130,-135,130,225,240,250,250,600,,SBD
1,Christian Wilson-Smith,M,2001-09-01,20,Australia,,Raw,Juniors 20-23,84.7,90,155,165,-172.5,165,-127.5,135,-142.5,135,205,215,225,225,525,,SBD
2,Arnie Ubiparipovic,M,2000-05-06,21,Australia,,Raw,Juniors 20-23,89.55,90,140,-150,-150,140,77.5,82.5,85,85,150,162.5,170,170,395,Strength Tribe,SBD
1,Yerong Yang,M,2001-11-03,20,Australia,,Raw,Open,82.1,82.5,200,210,220,220,125,130,-135,130,225,240,250,250,600,,SBD
2,Ty Dansie,M,1986-12-16,35,Australia,,Raw,Open,80.1,82.5,175,185,197.5,197.5,120,127.5,-135,127.5,237.5,250,-260,250,575,,SBD
1,Christian Wilson-Smith,M,2001-09-01,20,Australia,,Raw,Open,84.7,90,155,165,-172.5,165,-127.5,135,-142.5,135,205,215,225,225,525,,SBD
2,Arnie Ubiparipovic,M,2000-05-06,21,Australia,,Raw,Open,89.55,90,140,-150,-150,140,77.5,82.5,85,85,150,162.5,170,170,395,Strength Tribe,SBD
1,Jesse Bogle,M,1996-06-16,25,Australia,,Raw,Open,98.6,100,185,200,215,215,125,132.5,137.5,137.5,195,215,227.5,227.5,580,ccsc,SBD
1,Frankie Nicotra,M,1998-06-23,23,Australia,,Raw,Open,109.45,110,180,190,197.5,197.5,127.5,132.5,-137.5,132.5,222.5,232.5,242.5,242.5,572.5,,SBD
1,Dylan Falzon,M,1997-07-24,24,Australia,,Raw,Open,122.6,125,210,230,245,245,130,137.5,-142.5,137.5,210,230,-250,230,612.5,CCSC,SBD
1,James Joyce #1,M,1969-10-02,52,Australia,,Wraps,Masters 50-54,82.45,82.5,130,145,-152.5,145,100,102.5,-105,102.5,180,190,197.5,197.5,445,,SBD
1,Kyle Aubin,M,1997-04-28,24,Australia,,Wraps,Open,74.35,75,165,175,180,180,100,107.5,-110,107.5,175,180,,180,467.5,Rivercity Barbell,SBD
1,Jeffrey Allen #3,M,1992-12-31,29,Australia,,Wraps,Open,79.65,82.5,200,210,-220,210,130,135,140,140,220,230,240,240,590,,SBD
2,James Joyce #1,M,1969-10-02,52,Australia,,Wraps,Open,82.45,82.5,130,145,-152.5,145,100,102.5,-105,102.5,180,190,197.5,197.5,445,,SBD
1,Denis Sovacki,M,1993-10-28,28,Australia,,Wraps,Open,89.55,90,215,222.5,230,230,135,140,145,145,250,275,-285,275,650,,SBD
2,Justen Hadley Mackay,M,1993-01-13,29,Australia,,Wraps,Open,88.7,90,190,200,-215,200,155,-165,165,165,200,210,220,220,585,Rivercity Barbell,SBD
1,Blake Aubin,M,1993-03-13,29,Australia,,Wraps,Open,99.25,100,230,240,250,250,145,155,-162.5,155,235,250,255,255,660,River City Barbell,SBD
1,John Pappas #1,M,1993-01-07,29,Australia,,Single-ply,Open,107.85,110,210,225,240,240,-140,160,,160,230,250,260,260,660,,SBD
1,Dustin Burrell,M,1988-01-27,34,Australia,NSW,Raw,Open,98.3,100,,,,,150,-165,-165,150,,,,,150,,B
1,Layne Hall,M,1998-02-16,24,Australia,,Raw,Open,96.45,100,,,,,170,-180,-185,170,,,,,170,,B
