Division,WeightClassKg,Place,Name,Team,BodyweightKg,Best3SquatKg,Best3BenchKg,Best3DeadliftKg,TotalKg,Equipment,Event,Sex,BirthDate
Boys,51.71,1,Noah Estrada,Agua Dulce,50.8,167.83,102.06,176.9,446.79,Single-ply,SBD,M,
Boys,51.71,2,Jacob Guerrero,Yorktown,50.35,165.56,108.86,158.76,433.18,Single-ply,SBD,M,
Boys,51.71,3,Tevin Mead,Miles,51.62,172.37,104.33,154.22,430.91,Single-ply,SBD,M,
Boys,51.71,4,Corey Michalek,Axtell,51.53,167.83,86.18,163.29,417.3,Single-ply,SBD,M,
Boys,51.71,5,Imanol Mendez,Louise,50.53,158.76,77.11,158.76,394.63,Single-ply,SBD,M,
Boys,51.71,6,Robert Noriega,Kress,50.89,142.88,95.25,154.22,392.36,Single-ply,SBD,M,
Boys,51.71,7,Eli Saunders,Burton,51.35,147.42,86.18,156.49,390.09,Single-ply,SBD,M,
Boys,51.71,8,Deion Vega,Agua Dulce,49.9,142.88,86.18,149.69,378.75,Single-ply,SBD,M,
Boys,51.71,9,Michael Salazar,Sundown,50.98,124.74,70.31,142.88,337.93,Single-ply,SBD,M,
Boys,51.71,10,Ja-Kelon Tutt,Garrison,50.26,124.74,74.84,117.93,317.51,Single-ply,SBD,M,
Boys,51.71,11,Nathaniel Donaghey,Electra,50.71,106.59,68.04,120.2,294.84,Single-ply,SBD,M,
Boys,51.71,12,Lucas Woolem,Tom Bean,49.9,99.79,63.5,108.86,272.16,Single-ply,SBD,M,
Boys,51.71,13,Landon Caudle,Maud,51.26,83.91,61.23,102.06,247.21,Single-ply,SBD,M,
Boys,55.79,1,David Perez #1,Ben Bolt-Palito Blanco,55.16,183.7,113.4,167.83,464.93,Single-ply,SBD,M,
Boys,55.79,2,Lane Smith,Ozona,55.43,174.63,104.33,181.44,460.4,Single-ply,SBD,M,
Boys,55.79,3,Jagger Allen,Garrison,55.61,170.1,120.2,170.1,460.4,Single-ply,SBD,M,
Boys,55.79,4,Caden Rocha,Panhandle,55.66,181.44,106.59,172.37,460.4,Single-ply,SBD,M,
Boys,55.79,5,Herschel Conway,Somerville,54.88,154.22,104.33,167.83,426.38,Single-ply,SBD,M,
Boys,55.79,6,Rio Garcia,Deweyville,54.88,154.22,97.52,170.1,421.84,Single-ply,SBD,M,
Boys,55.79,7,Fabian Viernes,Bovina,54.88,156.49,104.33,158.76,419.57,Single-ply,SBD,M,
Boys,55.79,8,Cooper Talley,Quanah,54.98,151.95,74.84,156.49,383.29,Single-ply,SBD,M,
Boys,55.79,9,Leander Lovelace,Alvord,55.52,136.08,88.45,154.22,378.75,Single-ply,SBD,M,
Boys,55.79,10,Isaiah Hardison,Joaquin,55.52,154.22,74.84,149.69,378.75,Single-ply,SBD,M,
Boys,55.79,11,Wyatt Steinberger,Windthorst,54.88,142.88,86.18,145.15,374.21,Single-ply,SBD,M,
Boys,55.79,12,Leo Martinez,Ranger,55.34,122.47,83.91,145.15,351.53,Single-ply,SBD,M,
Boys,55.79,13,Justin Hernandez,San Saba,55.52,122.47,63.5,145.15,331.12,Single-ply,SBD,M,
Boys,55.79,DQ,Xander Moffett,Roscoe Collegiate,54.7,127.01,72.57,,,Single-ply,SBD,M,
Boys,59.87,1,Wyatt Abbott,Alvord,58.06,181.44,97.52,204.12,483.08,Single-ply,SBD,M,
Boys,59.87,2,Verkobe Woodberry,Somerville,59.33,176.9,92.99,197.31,467.2,Single-ply,SBD,M,
Boys,59.87,3,Mario Pena,De Leon,57.24,174.63,113.4,172.37,460.4,Single-ply,SBD,M,
Boys,59.87,4,Kyndle Esparza,Seagraves,58.79,174.63,88.45,190.51,453.59,Single-ply,SBD,M,
Boys,59.87,5,Javier Ontiveros,Refugio,58.97,170.1,108.86,174.63,453.59,Single-ply,SBD,M,
Boys,59.87,6,Jacob Espericueta,La Villa,59.6,165.56,99.79,179.17,444.52,Single-ply,SBD,M,
Boys,59.87,7,Justin Baque,Tom Bean,57.52,165.56,86.18,183.7,435.45,Single-ply,SBD,M,
Boys,59.87,8,Nathan Skipworth,Bosqueville,58.15,167.83,92.99,158.76,419.57,Single-ply,SBD,M,
Boys,59.87,9,Devin Espinoza,Gilmer Union Hill,58.24,165.56,90.72,163.29,419.57,Single-ply,SBD,M,
Boys,59.87,10,Gentry Doyle,Flatonia,59.87,142.88,102.06,142.88,387.82,Single-ply,SBD,M,
Boys,59.87,11,Jhoan Menjivar,Plains,59.87,136.08,83.91,158.76,378.75,Single-ply,SBD,M,
Boys,59.87,12,Winton Lackey,San Saba,59.24,156.49,83.91,136.08,376.48,Single-ply,SBD,M,
Boys,59.87,DQ,Micah McCall,Dawson,58.69,,,,,Single-ply,SBD,M,
Boys,67.13,1,Tucker Abbott,Alvord,62.23,217.72,117.93,240.4,576.06,Single-ply,SBD,M,
Boys,67.13,2,Kit Macina,Shamrock,64.77,226.8,129.27,204.12,560.19,Single-ply,SBD,M,
Boys,67.13,3,Joe Fraga,Runge,65.59,213.19,111.13,235.87,560.19,Single-ply,SBD,M,
Boys,67.13,4,Dayden Hunter,Coleman,65.77,197.31,145.15,190.51,532.97,Single-ply,SBD,M,
Boys,67.13,5,Jayden Silguero,La Villa,65.95,204.12,127.01,201.85,532.97,Single-ply,SBD,M,
Boys,67.13,6,Anthony Gallegos,La Pryor,65.86,192.78,131.54,201.85,526.17,Single-ply,SBD,M,
Boys,67.13,7,Erick Orduna,Celeste,66.68,197.31,122.47,197.31,517.1,Single-ply,SBD,M,
Boys,67.13,8,Mark Rubalcava,Sundown,66.22,201.85,102.06,210.92,514.83,Single-ply,SBD,M,
Boys,67.13,9,Daniel Estrada,New Home,66.5,185.97,127.01,199.58,512.56,Single-ply,SBD,M,
Boys,67.13,10,Manny Calderon,Ganado,65.77,197.31,120.2,188.24,505.76,Single-ply,SBD,M,
Boys,67.13,11,Cloedus Scales,Detroit,67.13,195.04,117.93,185.97,498.95,Single-ply,SBD,M,
Boys,67.13,12,Jordan Davis #1,Axtell,66.95,199.58,113.4,183.7,496.68,Single-ply,SBD,M,
Boys,67.13,13,Arturo Parra,Chico,65.95,188.24,102.06,201.85,492.15,Single-ply,SBD,M,
Boys,67.13,14,Max Herrera,Chilton,64.41,192.78,127.01,158.76,478.54,Single-ply,SBD,M,
Boys,74.84,1,Valentin Garza,La Pryor,73.39,247.21,142.88,265.35,655.44,Single-ply,SBD,M,
Boys,74.84,2,Tanner Meeks,Celeste,74.48,233.6,145.15,224.53,603.28,Single-ply,SBD,M,
Boys,74.84,3,Jayke Bass,Gilmer Union Hill,73.39,210.92,156.49,215.46,582.87,Single-ply,SBD,M,
Boys,74.84,4,Michael Fulton,Roscoe Collegiate,73.03,224.53,124.74,213.19,562.45,Single-ply,SBD,M,
Boys,74.84,5,Steve Salazar,Ralls,74.75,208.65,127.01,226.8,562.45,Single-ply,SBD,M,
Boys,74.84,6,Colby Tolbert,Bruceville-Eddy,72.57,231.33,127.01,192.78,551.11,Single-ply,SBD,M,
Boys,74.84,7,Rayce Pennartz,Alvord,72.76,224.53,122.47,204.12,551.11,Single-ply,SBD,M,
Boys,74.84,8,Dylan Davis,Panhandle,73.03,219.99,122.47,204.12,546.58,Single-ply,SBD,M,
Boys,74.84,9,Alexis Martinez #14,Ganado,74.21,215.46,117.93,195.04,528.44,Single-ply,SBD,M,
Boys,74.84,10,Trent Mendez,Schulenburg,72.3,195.04,129.27,201.85,526.17,Single-ply,SBD,M,
Boys,74.84,11,Ramiro Ramos,Bruni,74.75,199.58,129.27,195.04,523.9,Single-ply,SBD,M,
Boys,74.84,12,Adam Dominguez,Woodsboro,70.94,213.19,97.52,210.92,521.63,Single-ply,SBD,M,
Boys,74.84,13,Trevor Patterson,Electra,72.48,199.58,115.67,192.78,508.02,Single-ply,SBD,M,
Boys,82.1,1,Kevin Garcia,Sundown,80.83,254.01,170.1,249.48,673.58,Single-ply,SBD,M,
Boys,82.1,2,Braydon Garcia,Quanah,76.2,272.16,136.08,247.21,655.44,Single-ply,SBD,M,
Boys,82.1,3,Arnold Navarro,Ben Bolt-Palito Blanco,81.19,235.87,147.42,240.4,623.69,Single-ply,SBD,M,
Boys,82.1,4,EJ Hernandez,Sundown,78.93,238.14,154.22,229.06,621.42,Single-ply,SBD,M,
Boys,82.1,5,Kyle Nichols,Hawley,80.01,254.01,138.35,229.06,621.42,Single-ply,SBD,M,
Boys,82.1,6,Davy Branscom,Gladewater Union Grove,80.65,244.94,127.01,204.12,576.06,Single-ply,SBD,M,
Boys,82.1,7,Hunter Boatright,Dawson,81.1,222.26,122.47,229.06,573.79,Single-ply,SBD,M,
Boys,82.1,8,Luis Guillen,Jewett Leon,79.83,208.65,127.01,231.33,566.99,Single-ply,SBD,M,
Boys,82.1,9,Nemo Jacobo,Agua Dulce,80.01,226.8,117.93,213.19,557.92,Single-ply,SBD,M,
Boys,82.1,10,Trace Riggs,Thrall,79.74,215.46,131.54,208.65,555.65,Single-ply,SBD,M,
Boys,82.1,11,Tristen Harding,Roscoe Highland,80.2,208.65,124.74,215.46,548.85,Single-ply,SBD,M,
Boys,82.1,12,Zuri Herrera,San Saba,77.29,199.58,117.93,192.78,510.29,Single-ply,SBD,M,
Boys,89.81,1,Hayden Kylberg,Thorndale,88,272.16,192.78,260.82,725.75,Single-ply,SBD,M,
Boys,89.81,2,Jerry Reyes,La Villa,88.54,265.35,165.56,199.58,630.49,Single-ply,SBD,M,
Boys,89.81,3,Diego Hernandez,Sundown,87.82,240.4,136.08,229.06,605.55,Single-ply,SBD,M,
Boys,89.81,4,Dylan Farias,Kenedy,86,226.8,142.88,226.8,596.47,Single-ply,SBD,M,
Boys,89.81,5,Andre Brown,Joaquin,86.18,231.33,127.01,231.33,589.67,Single-ply,SBD,M,
Boys,89.81,6,Jolon Garner,San Augustine,85.73,233.6,127.01,226.8,587.4,Single-ply,SBD,M,
Boys,89.81,7,Abram Ross,Mart,89.45,226.8,122.47,235.87,585.13,Single-ply,SBD,M,
Boys,89.81,8,Kade Miller,Miles,85.55,240.4,136.08,204.12,580.6,Single-ply,SBD,M,
Boys,89.81,9,Luke Brooker,Whiteface,86.27,226.8,151.95,201.85,580.6,Single-ply,SBD,M,
Boys,89.81,10,Jett Millsop,Strawn,88.45,238.14,131.54,204.12,573.79,Single-ply,SBD,M,
Boys,89.81,11,Artem Brendle,Haskell,82.37,204.12,154.22,206.38,564.72,Single-ply,SBD,M,
Boys,89.81,12,Colton Cargill,Holland,82.64,208.65,120.2,204.12,532.97,Single-ply,SBD,M,
Boys,99.79,1,Daniel Gaona III,Louise,97.34,292.57,172.37,260.82,725.75,Single-ply,SBD,M,
Boys,99.79,2,Andrew Hernandez #1,Sundown,95.44,299.37,181.44,217.72,698.53,Single-ply,SBD,M,
Boys,99.79,3,Isaac Traxler,Garrison,96.07,235.87,167.83,283.5,687.19,Single-ply,SBD,M,
Boys,99.79,4,Jc Chaney,Holland,93.98,272.16,158.76,238.14,669.05,Single-ply,SBD,M,
Boys,99.79,5,Lorenzo Garcia,Strawn,99.06,294.84,158.76,215.46,669.05,Single-ply,SBD,M,
Boys,99.79,6,Kaimana Nakoa,Italy,97.79,240.4,170.1,249.48,659.98,Single-ply,SBD,M,
Boys,99.79,7,Kreed Turney,Roscoe Highland,98.52,226.8,183.7,235.87,646.37,Single-ply,SBD,M,
Boys,99.79,8,Fernando Vargas,Kenedy,95.25,272.16,142.88,229.06,644.1,Single-ply,SBD,M,
Boys,99.79,9,Ezequiel Munoz,Coleman,95.53,235.87,149.69,195.04,580.6,Single-ply,SBD,M,
Boys,99.79,10,Cameron Davis #1,Bloomington,96.16,192.78,145.15,231.33,569.26,Single-ply,SBD,M,
Boys,99.79,DQ,Isaac Tovar,Sunray,98.79,235.87,,,,Single-ply,SBD,M,
Boys,99.79,DQ,Luke Short,Petrolia,98.25,231.33,,,,Single-ply,SBD,M,
Boys,109.77,1,Andy Castillo,Sundown,108.14,272.16,176.9,267.62,716.68,Single-ply,SBD,M,
Boys,109.77,2,Jose Molina #4,Normangee,109.59,292.57,174.63,244.94,712.14,Single-ply,SBD,M,
Boys,109.77,3,Braylon Cornish,Normangee,106.23,283.5,147.42,240.4,671.32,Single-ply,SBD,M,
Boys,109.77,4,Ryland Reyna,Kenedy,107.95,238.14,181.44,244.94,664.51,Single-ply,SBD,M,
Boys,109.77,5,Meckeal Barrera,Quanah,109.13,317.51,163.29,181.44,662.24,Single-ply,SBD,M,
Boys,109.77,6,Jose Najera,Hamilton,107.77,272.16,156.49,231.33,659.98,Single-ply,SBD,M,
Boys,109.77,7,Jonaven Villarreal,Bruni,106.5,254.01,170.1,226.8,650.91,Single-ply,SBD,M,
Boys,109.77,8,Dekota Golightly,Sundown,109.32,258.55,165.56,226.8,650.91,Single-ply,SBD,M,
Boys,109.77,9,Ivan Rangel,Agua Dulce,105.78,263.08,147.42,235.87,646.37,Single-ply,SBD,M,
Boys,109.77,10,Hayden Sands,Alvord,109.5,260.82,158.76,204.12,623.69,Single-ply,SBD,M,
Boys,109.77,11,Omar DeLaHoya,Italy,105.96,226.8,163.29,226.8,616.89,Single-ply,SBD,M,
Boys,109.77,12,Peyton Friedman,Roscoe Collegiate,104.78,251.74,158.76,201.85,612.35,Single-ply,SBD,M,
Boys,109.77,13,Max Figueroa,Wolfe City,102.97,226.8,145.15,238.14,610.08,Single-ply,SBD,M,
Boys,109.77,DQ,Nate Bennett,Roscoe Highland,102.33,215.46,158.76,,,Single-ply,SBD,M,
Boys,124.74,1,Jagger Summa,Bosqueville,120.11,306.17,195.04,269.89,771.11,Single-ply,SBD,M,
Boys,124.74,2,Kirkland John Michael,Rocksprings,111.58,278.96,185.97,276.69,741.62,Single-ply,SBD,M,
Boys,124.74,3,Joseph Luna,Kenedy,112.76,265.35,176.9,265.35,707.6,Single-ply,SBD,M,
Boys,124.74,4,Christopher Vasquez,Louise,122.47,317.51,131.54,256.28,705.34,Single-ply,SBD,M,
Boys,124.74,5,Jeffery Rodriguez,Sundown,115.39,254.01,165.56,249.48,669.05,Single-ply,SBD,M,
Boys,124.74,6,Caden Espinosa,Somerville,116.39,242.67,167.83,258.55,669.05,Single-ply,SBD,M,
Boys,124.74,7,Chris Castillo,Sundown,120.2,247.21,172.37,224.53,644.1,Single-ply,SBD,M,
Boys,124.74,8,De'Braylon McDonald,Overton,117.66,238.14,136.08,249.48,623.69,Single-ply,SBD,M,
Boys,124.74,9,Alex Oxford,Frankston,123.2,254.01,145.15,208.65,607.81,Single-ply,SBD,M,
Boys,124.74,10,Troi Barrera,Quanah,117.21,238.14,136.08,215.46,589.67,Single-ply,SBD,M,
Boys,124.74,11,Brandon Obenoskey,Simms Bowie,110.4,235.87,136.08,210.92,582.87,Single-ply,SBD,M,
Boys,124.74,12,Samuel Kinder,Perrin-Whitt,114.67,201.85,104.33,208.65,514.83,Single-ply,SBD,M,
Boys,124.74,DQ,Caiden Arnett,Mart,120.75,247.21,,,,Single-ply,SBD,M,
Boys,139.71,1,Niko Castaneda,Meadow,135.71,328.85,176.9,265.35,771.11,Single-ply,SBD,M,
Boys,139.71,2,Jaime Elissetche,La Villa,125.28,322.05,174.63,254.01,750.7,Single-ply,SBD,M,
Boys,139.71,3,Easton Fulton,Rosebud-Lott,135.35,281.23,185.97,263.08,730.28,Single-ply,SBD,M,
Boys,139.71,4,Jacob Hernandez,Vega,130.91,292.57,170.1,249.48,712.14,Single-ply,SBD,M,
Boys,139.71,5,Jeryd Fain,Coleman,133.81,285.76,188.24,238.14,712.14,Single-ply,SBD,M,
Boys,139.71,6,Cristian Ramirez,San Saba,126.1,317.51,151.95,229.06,698.53,Single-ply,SBD,M,
Boys,139.71,7,Ernesto Nava,Eldorado,129.36,294.84,172.37,231.33,698.53,Single-ply,SBD,M,
Boys,139.71,8,Bryce Ballard,Italy,128.19,278.96,188.24,215.46,682.66,Single-ply,SBD,M,
Boys,139.71,9,Davon Walles,Flatonia,128.91,244.94,140.61,219.99,605.55,Single-ply,SBD,M,
Boys,139.71,10,Brett Hamilton,Santo,130.18,226.8,127.01,167.83,521.63,Single-ply,SBD,M,
Boys,139.71,11,Angel Raygoza,Tom Bean,130.18,179.17,129.27,192.78,501.22,Single-ply,SBD,M,
Boys,139.71,DQ,John Hester,Hawkins,127.19,249.48,204.12,,,Single-ply,SBD,M,
Boys,139.71+,1,Taden Alvarado,Flatonia,150.96,322.05,174.63,256.28,752.96,Single-ply,SBD,M,
Boys,139.71+,2,Jasper Shaw,Garrison,175.36,308.44,176.9,247.21,732.55,Single-ply,SBD,M,
Boys,139.71+,3,Keano Perez,Ozona,146.51,306.17,161.03,254.01,721.21,Single-ply,SBD,M,
Boys,139.71+,4,Konar Alaman,Sundown,164.38,283.5,185.97,238.14,707.6,Single-ply,SBD,M,
Boys,139.71+,5,Ryleigh O'Campo,Thrall,141.43,288.03,158.76,258.55,705.34,Single-ply,SBD,M,
Boys,139.71+,6,Jalen Ramirez,Wink,151.68,272.16,142.88,258.55,673.58,Single-ply,SBD,M,
Boys,139.71+,7,Trey Cartwright,Shelbyville,153.59,272.16,154.22,244.94,671.32,Single-ply,SBD,M,
Boys,139.71+,8,Christian Ashby,Colorado City Colorado,141.07,251.74,151.95,215.46,619.15,Single-ply,SBD,M,
Boys,139.71+,9,Gage Balthrop,Roscoe Highland,162.93,249.48,136.08,190.51,576.06,Single-ply,SBD,M,
Boys,139.71+,10,Piercyn Brooks,Perrin-Whitt,142.07,181.44,108.86,181.44,471.74,Single-ply,SBD,M,
Boys,139.71+,DQ,Rafael Benavides,Junction,146.24,,,,,Single-ply,SBD,M,
