Name,Sex,WeightClassKg,Division,AgeRange,Equipment,Best3SquatKg,Best3BenchKg,Best3DeadliftKg,TotalKg,Event,Place
M. Hodges,M,90,30-34,30-34,Raw,,195.04,,195.04,B,1
R. Adams,M,100,55-59,55-59,Raw,,154.22,,154.22,B,1
K. McGuire,M,67.5,Open,0-999,Raw,154.22,40.82,183.7,378.75,SBD,1
N. Koldewey,M,82.5,19-20,19-20,Raw,174.63,131.54,29.48,335.66,SBD,1
A. Ordonez,M,82.5,17-18,17-18,Raw,174.63,40.82,210.92,426.38,SBD,1
M. Snowden,M,90,35-39,35-39,Raw,172.37,140.61,204.12,517.1,SBD,1
J. James,M,125+,45-49,45-49,Raw,183.7,154.22,238.14,576.06,SBD,1
